co/verilog/p1/p1_test1.vcd
$date
	Tue Dec 03 09:57:22 2024
$end
$version
	Icarus Verilog
$end
$timescale
	1s
$end
$scope module p1_tb $end
$var wire 1 ! s $end
$var wire 1 " cout $end
$var reg 1 # a $end
$var reg 1 $ b $end
$var reg 1 % cin $end
$scope module uut $end
$var wire 1 # a $end
$var wire 1 $ b $end
$var wire 1 % cin $end
$var wire 1 " cout $end
$var wire 1 ! s $end
$upscope $end
$scope begin $ivl_for_loop0 $end
$var integer 32 & i [31:0] $end
$upscope $end
$upscope $end
$enddefinitions $end
$comment Show the parameter values. $end
$dumpall
$end
#0
$dumpvars
b0 &
0%
0$
0#
0"
0!
$end
#1
1!
1%
b1 &
#2
1!
1$
0%
b10 &
#3
1"
0!
1%
b11 &
#4
0"
1!
1#
0$
0%
b100 &
#5
1"
0!
1%
b101 &
#6
0!
1$
0%
b110 &
#7
1!
1%
b111 &
#8
b1000 &
